{
  "books": [
    {
      "id": 3,
      "author": "G.G Jorge",
      "name": "GOT",
      "cost": 520
    },
    {
      "id": 5,
      "author": "G.G Jorge",
      "name": "priyank",
      "cost": 489
    },
    {
      "id": 7,
      "author": "gondha",
      "name": "priyank",
      "cost": 789
    },
    {
      "id": 8,
      "author": "G.G Jorge",
      "name": "GOT",
      "cost": 333
    }
  ]
}